INDEX VERSION 1.131+/home/icb/eclipse-workspace/.metadata/.plugins/org.eclipse.jdt.core
3498402345.index
2592625412.index
2248321864.index
1247111899.index
640410600.index
2671101691.index
1901730212.index
3055931853.index
3949366491.index
